softwareRisk: Computation of Node and Path-Level Risk Scores in Scientific Models
…
# Run the function -------------------------------------------------------------

output <- all_paths_fun(graph = synthetic_graph,
                        alpha = 0.6,
                        beta  = 0.3,
                        gamma = 0.1,
                        complexity_col = "cyclo",
                        weight_tol = 1e-8)

# Print the output -------------------------------------------------------------

output
#> $nodes
#> # A tibble: 55 × 6
#>    name  cyclomatic_complexity indeg outdeg   btw risk_score
#>    <chr>                 <dbl> <dbl>  <dbl> <dbl>      <dbl>
#>  1 E1                        7     0      4  0        0.0610
#>  2 M15                      10     3      3 14.5      0.236 
#>  3 M14                      39     2      3 12        0.485 
#>  4 M3                       12     1      3  2.5      0.157 
#>  5 M10                      13     3      2 34.8      0.289 
#>  6 E2                       43     0      3  0        0.427 
#>  7 M25                      17     3      4 25        0.319 
#>  8 M26                       3     2      3  7        0.114 
#>  9 E3                        6     0      4  0        0.0508
#> 10 M5                        8     1      6  7.25     0.122 
#> # ℹ 45 more rows
#> 
#> $paths
#> # A tibble: 209 × 10
#>    path_id path_nodes path_str       hops path_risk_score path_cc gini_node_risk
#>      <int> <list>     <chr>         <dbl>           <dbl> <list>           <dbl>
#>  1       1 <chr [6]>  E1 → M14 → M…     5           0.900 <dbl>           0.253 
#>  2       2 <chr [4]>  E1 → M14 → M…     3           0.793 <dbl>           0.277 
#>  3       3 <chr [5]>  E1 → M10 → M…     4           0.773 <dbl>           0.243 
#>  4       4 <chr [6]>  E2 → M14 → M…     5           0.939 <dbl>           0.136 
#>  5       5 <chr [4]>  E2 → M14 → M…     3           0.874 <dbl>           0.0946
#>  6       6 <chr [5]>  E2 → M25 → M…     4           0.868 <dbl>           0.132 
#>  7       7 <chr [3]>  E2 → M25 → S…     2           0.725 <dbl>           0.0841
#>  8       8 <chr [5]>  E3 → M25 → M…     4           0.781 <dbl>           0.253 
#>  9       9 <chr [3]>  E3 → M25 → S…     2           0.545 <dbl>           0.269 
#> 10      10 <chr [6]>  E3 → M5 → M1…     5           0.799 <dbl>           0.285 
#> # ℹ 199 more rows
#> # ℹ 3 more variables: risk_slope <dbl>, risk_mean <dbl>, risk_sum <dbl>
…
softwareRisk provides functions to inspect the results
of the analysis. The function path_fix_heatmap allows the
analyst to chose the top \(n\) nodes
and \(n\) paths in terms of their risk
score and observe how much the risk score of the riskiest paths would
decrease if the selected high-risk nodes were made perfectly reliable.
This analysis identifies nodes that act as chokepoints for risk
propagation, highlights paths dominated by single high-risk functions
and reveals which refactoring actions would yield the greatest
reductions in path-level risk.

path_fix_heatmap(all_paths_out = output, n_nodes = 20, k_paths = 20)
#> $delta_tbl
#> # A tibble: 400 × 3
#>    node  path_id deltaR
#>    <fct> <fct>    <dbl>
#>  1 S6    44       0    
#>  2 S6    146      0    
#>  3 S6    192      0    
#>  4 S6    103      0    
#>  5 S6    39       0    
#>  6 S6    57       0    
#>  7 S6    143      0    
#>  8 S6    159      0    
#>  9 S6    93       0.260
#> 10 S6    4        0    
#> # ℹ 390 more rows
…
$paths: a path_id column with the ID
number of the path, a path_str column informing on the
sequence of functions calls for that path, a hops column
informing on the number of edges traversed along the path, and an
uncertainty_analysis with a vector of path-level risk
scores after the uncertainty analysis.

The sensitivity_analysis column can be unlisted and
inspected as follows:

uncertainty_analysis$nodes |>
  tidyr::unnest(sensitivity_analysis)
#> # A tibble: 330 × 5
#>    name  uncertainty_analysis original sensitivity parameters
#>    <chr> <list>                  <dbl> <chr>       <chr>     
#>  1 E1    <dbl [2,048]>           0.625 Si          a_raw     
#>  2 E1    <dbl [2,048]>           0.154 Si          b_raw     
#>  3 E1    <dbl [2,048]>           0.154 Si          c_raw     
#>  4 E1    <dbl [2,048]>           0.648 Ti          a_raw     
#>  5 E1    <dbl [2,048]>           0.205 Ti          b_raw     
#>  6 E1    <dbl [2,048]>           0.204 Ti          c_raw     
#>  7 M15   <dbl [2,048]>           0.162 Si          a_raw     
#>  8 M15   <dbl [2,048]>           0.629 Si          b_raw     
#>  9 M15   <dbl [2,048]>           0.132 Si          c_raw     
#> 10 M15   <dbl [2,048]>           0.217 Ti          a_raw     
#> # ℹ 320 more rows
…
